Final Project
…
Residuals shows how many and how much these points are in relation to the residuals.

# A tibble: 6,997 × 2
   player_name           mean_euro
   <chr>                     <dbl>
 1 Aaron Cresswell         3000000
 2 Aaron Herzog             125000
 3 Aaron Hunt              1500000
 4 Aaron Kamardin           150000
 5 Aaron Lennon            1000000
 6 Aaron Mattia Tabacchi     25000
 7 Aaron McLean             500000
 8 Aaron Ramsdale         28000000
 9 Aaron Seydel             400000
10 Aaron Wan-Bissaka      25000000
# ℹ 6,987 more rows

# A tibble: 6,997 × 2
   player_name           mean_euro
   <chr>                     <dbl>
 1 Aaron Cresswell         3000000
 2 Aaron Herzog             125000
 3 Aaron Hunt              1500000
 4 Aaron Kamardin           150000
 5 Aaron Lennon            1000000
 6 Aaron Mattia Tabacchi     25000
 7 Aaron McLean             500000
 8 Aaron Ramsdale         28000000
 9 Aaron Seydel             400000
10 Aaron Wan-Bissaka      25000000
# ℹ 6,987 more rows
…
# A tibble: 1 × 1
      stat
     <dbl>
1 2792952.

Response: mean_euro (numeric)
# A tibble: 1 × 1
      stat
     <dbl>
1 2792952.

Response: mean_euro (numeric)
# A tibble: 6,997 × 1
   mean_euro
       <dbl>
 1   3000000
 2    125000
 3   1500000
 4    150000
 5   1000000
 6     25000
 7    500000
 8  28000000
 9    400000
10  25000000
# ℹ 6,987 more rows

Response: mean_euro (numeric)
# A tibble: 6,997 × 1
   mean_euro
       <dbl>
 1   3000000
 2    125000
 3   1500000
 4    150000
 5   1000000
 6     25000
 7    500000
 8  28000000
 9    400000
10  25000000
# ℹ 6,987 more rows

Response: mean_euro (numeric)
# A tibble: 3,498,500 × 2
# Groups:   replicate [500]
   replicate mean_euro
       <int>     <dbl>
 1         1    150000
 2         1   1200000
 3         1    600000
 4         1    200000
 5         1    200000
 6         1     75000
 7         1    150000
 8         1    250000
 9         1     75000
10         1   1000000
# ℹ 3,498,490 more rows

Setting `type = "bootstrap"` in `generate()`.

Response: mean_euro (numeric)
# A tibble: 500 × 2
   replicate     stat
       <int>    <dbl>
 1         1 2919470.
 2         2 2770108.
 3         3 2868604.
 4         4 2743304.
 5         5 2765894.
 6         6 2860149.
 7         7 3042018.
 8         8 2801646.
 9         9 2825243.
10        10 2739017.
# ℹ 490 more rows
…
