MD5
…
Q: What do you see? Are there any big residuals? DO they happen often in a particular range of our x-variable? If so, we would have a problem: our model would systematically fail to predict part of our data.

A: There are some residuals off of the line but its normal going through the plot. They are often but they are mostly close to the line of best fit.

Q.4)

fit2 <- lm(log_viewers ~ language, data = twitch_data)
get_regression_table(fit2)

# A tibble: 21 × 7
   term                estimate std_error statistic p_value lower_ci upper_ci
   <chr>                  <dbl>     <dbl>     <dbl>   <dbl>    <dbl>    <dbl>
 1 intercept              3.73      0.177     21.1    0        3.38     4.08 
 2 language: Chinese     -0.344     0.191     -1.80   0.072   -0.719    0.031
 3 language: Czech       -0.549     0.24      -2.29   0.022   -1.02    -0.079
 4 language: English     -0.264     0.178     -1.49   0.137   -0.613    0.085
 5 language: Finnish     -0.717     0.433     -1.65   0.098   -1.57     0.134
 6 language: French      -0.324     0.184     -1.76   0.078   -0.684    0.037
 7 language: German      -0.321     0.186     -1.73   0.084   -0.685    0.044
 8 language: Greek       -0.436     0.433     -1.01   0.315   -1.29     0.414
 9 language: Hungarian   -0.413     0.331     -1.25   0.213   -1.06     0.237
10 language: Italian     -0.471     0.201     -2.34   0.02    -0.866   -0.076
# ℹ 11 more rows

tidy(fit2)

# A tibble: 21 × 5
   term              estimate std.error statistic  p.value
   <chr>                <dbl>     <dbl>     <dbl>    <dbl>
 1 (Intercept)          3.73      0.177     21.1  1.40e-81
 2 languageChinese     -0.344     0.191     -1.80 7.21e- 2
 3 languageCzech       -0.549     0.240     -2.29 2.21e- 2
 4 languageEnglish     -0.264     0.178     -1.49 1.37e- 1
 5 languageFinnish     -0.717     0.433     -1.65 9.84e- 2
 6 languageFrench      -0.324     0.184     -1.76 7.82e- 2
 7 languageGerman      -0.321     0.186     -1.73 8.43e- 2
 8 languageGreek       -0.436     0.433     -1.01 3.15e- 1
 9 languageHungarian   -0.413     0.331     -1.25 2.13e- 1
10 languageItalian     -0.471     0.201     -2.34 1.96e- 2
# ℹ 11 more rows
…
